<svg xmlns="http://www.w3.org/2000/svg" fill="none" viewBox="0 0 18 18">
  <path fill="#1DB173" fill-rule="evenodd" d="M9.633 12H8.368l-.129.48a3.41 3.41 0 1 1-6.588-1.766l1.29-4.813a3.41 3.41 0 0 1 6.06-1.113A3.41 3.41 0 0 1 15.06 5.9l1.288 4.813a3.41 3.41 0 0 1-6.588 1.765L9.633 12Zm3.46 1.579c1.13 0 2.046-.95 2.046-2.123 0-1.173-.916-2.123-2.046-2.123s-2.047.95-2.047 2.123c0 1.172.917 2.123 2.047 2.123Zm-8.185 0c1.13 0 2.046-.95 2.046-2.123 0-1.173-.916-2.123-2.046-2.123s-2.046.95-2.046 2.123c0 1.172.916 2.123 2.046 2.123Z" clip-rule="evenodd"/>
</svg>
